{
  "name": "En_Francais_SVP",
  "title": "En Francais SVP! (AideDD) [DD5]",
  "description": "<p>Incorporation de la traduction du système DD5 disponible sur AideDD.org</p> Règles : Création de personnages, races, classes, historiques, équipement, dons, multiclassage, combat, magie, sorts, conditions, créatures, objets magiques : toutes les règles dont vous avez besoin pour jouer en français.</p> Aides de jeu : Test d'alignement, scénarios clé en main, pleins d'aides de jeu, des suppléments, traductions d'articles des rubriques Unearthed Arcana et Sage Advice de WotC et du site D&D Beyond.</p>",
  "author": "Kaliss",
  "version": "0.8",
  "minimumCoreVersion": "0.6.0",
  "compatibleCoreVersion": "0.7.0",
  "packs": [
    {
      "name": "00-table-des-matieres-and-introduction-aidedd",
      "label": "00 Table des matieres & Introduction (AideDD)",
      "path": "packs/00-table-des-matieres-and-introduction-aidedd.db",
      "module": "En_Francais_SVP",
      "entity": "JournalEntry"
    },
    {
      "name": "001-table-des-matieres-dm-aidedd",
      "label": "00.1 Table des matieres [DM] (AideDD)",
      "path": "packs/001-table-des-matieres-dm-aidedd.db",
      "module": "En_Francais_SVP",
      "entity": "JournalEntry"
    },
    {
      "name": "01-creation-de-personnage-aidedd",
      "label": "01 Création de personnage (AideDD)",
      "path": "packs/01-creation-de-personnage-aidedd.db",
      "module": "En_Francais_SVP",
      "entity": "JournalEntry"
    },
    {
      "name": "02-races-aidedd",
      "label": "02 Races (AideDD)",
      "path": "packs/02-races-aidedd.db",
      "module": "En_Francais_SVP",
      "entity": "JournalEntry"
    },
	{
      "name": "03-classes-aidedd",
      "label": "03 Classes (AideDD)",
      "path": "packs/03-classes-aidedd.db",
      "module": "En_Francais_SVP",
      "entity": "JournalEntry"
    },
	{
      "name": "04-personnalite-and-historique-aidedd",
      "label": "04 Personnalite & Historique AideDD)",
      "path": "packs/04-personnalite-and-historique-aidedd.db",
      "module": "En_Francais_SVP",
      "entity": "JournalEntry"
    },	
	{
      "name": "05-equipement-aidedd",
      "label": "05 Équipement (AideDD)",
      "path": "packs/05-equipement-aidedd.db",
      "module": "En_Francais_SVP",
      "entity": "JournalEntry"
    },	
	{
      "name": "06-options-de-personnalisation-aidedd",
      "label": "06 Options de personnalisation (AideDD)",
      "path": "packs/06-options-de-personnalisation-aidedd.db",
      "module": "En_Francais_SVP",
      "entity": "JournalEntry"
    },	
	{
      "name": "07-caracteristiques-aidedd",
      "label": "07 Caracteristiques (AideDD)",
      "path": "packs/07-caracteristiques-aidedd.db",
      "module": "En_Francais_SVP",
      "entity": "JournalEntry"
    },	
	{
      "name": "08-aventure-aidedd",
      "label": "08 Aventure (AideDD)",
      "path": "packs/08-aventure-aidedd.db",
      "module": "En_Francais_SVP",
      "entity": "JournalEntry"
    },	
	{
      "name": "09-combat-aidedd",
      "label": "09 Combat (AideDD)",
      "path": "packs/09-combat-aidedd.db",
      "module": "En_Francais_SVP",
      "entity": "JournalEntry"
    },	
	{
      "name": "10-incantations-and-sorts-aidedd",
      "label": "10 Incantations & Sorts (AideDD)",
      "path": "packs/10-incantations-and-sorts-aidedd.db",
      "module": "En_Francais_SVP",
      "entity": "JournalEntry"
    },	
	{
      "name": "12-conditions-aidedd",
      "label": "12 Conditions (AideDD)",
      "path": "packs/12-conditions-aidedd.db",
      "module": "En_Francais_SVP",
      "entity": "JournalEntry"
    },	
	{
      "name": "15-sage-advice-aidedd",
      "label": "15 Sage Advice (AideDD)",
      "path": "packs/15-sage-advice-aidedd.db",
      "module": "En_Francais_SVP",
      "entity": "JournalEntry"
    },	
	{
      "name": "16-regles-optionnelles-wotc-aidedd",
      "label": "16 Règles optionnelles WOTC (AideDD)",
      "path": "packs/16-regles-optionnelles-wotc-aidedd.db",
      "module": "En_Francais_SVP",
      "entity": "JournalEntry"
    },	
	{
      "name": "20-supports-pour-laventure-md-aidedd",
      "label": "20 Supports pour l'aventure [MD] (AideDD)",
      "path": "packs/20-supports-pour-laventure-md-aidedd.db",
      "module": "En_Francais_SVP",
      "entity": "JournalEntry"
    },	
	{
      "name": "21-au-coeur-des-contrees-sauvages-md-aidedd",
      "label": "21 Au coeur des contrées sauvages [MD] (AideDD)",
      "path": "packs/21-au-coeur-des-contrees-sauvages-md-aidedd.db",
      "module": "En_Francais_SVP",
      "entity": "JournalEntry"
    },	
	{
      "name": "22-dandd-beyond-behind-the-screens-md-aidedd",
      "label": "22 DD Beyond, behind the screens [MD] (AideDD)",
      "path": "packs/22-dandd-beyond-behind-the-screens-md-aidedd.db",
      "module": "En_Francais_SVP",
      "entity": "JournalEntry"
    },	
	{
      "name": "23-rencontres-md-aidedd",
      "label": "23 Rencontres [MD] (AideDD)",
      "path": "packs/23-rencontres-md-aidedd.db",
      "module": "En_Francais_SVP",
      "entity": "JournalEntry"
    },	
	{
      "name": "24-folies-maladies-pieges-poisons-md-aidedd",
      "label": "24 Folies, Maladies, Pieges, Poisons [MD] (AideDD)",
      "path": "packs/24-folies-maladies-pieges-poisons-md-aidedd.db",
      "module": "En_Francais_SVP",
      "entity": "JournalEntry"
    },	
	{
      "name": "25-tresors-md-aidedd",
      "label": "25 Tresors [MD] (AideDD)",
      "path": "packs/25-tresors-md-aidedd.db",
      "module": "En_Francais_SVP",
      "entity": "JournalEntry"
    },	
	{
      "name": "26-univers-md-aidedd",
      "label": "26 Univers [MD] (AideDD)",
      "path": "packs/26-univers-md-aidedd.db",
      "module": "En_Francais_SVP",
      "entity": "JournalEntry"
    },	
	{	  
      "name": "30-monstres-md-aidedd",
      "label": "30 Monstres [MD] (AideDD)",
      "path": "packs/30-monstres-md-aidedd.db",
      "module": "En_Francais_SVP",
      "entity": "JournalEntry"
    },		
	{
      "name": "tables-aleatoires-aidedd",
      "label": "Tables Aleatoires (AideDD)",
      "path": "packs/tables-aleatoires-aidedd.db",
      "module": "En_Francais_SVP",
      "entity": "RollTable"
    },
	{
      "name": "tables-aleatoires-md-aidedd",
      "label": "Tables Aleatoires [MD] (AideDD)",
      "path": "packs/tables-aleatoires-md-aidedd.db",
      "module": "En_Francais_SVP",
      "entity": "RollTable"
    },
	{
      "name": "tables-aleatoires-historiques-aidedd",
      "label": "Tables Aleatoires Historiques (AideDD)",
      "path": "packs/tables-aleatoires-historiques-aidedd.db",
      "module": "En_Francais_SVP",
      "entity": "RollTable"
    }	
  ],
  "url": "https://gitlab.com/sticklite13/en-francais-svp",
  "manifest": "https://gitlab.com/sticklite13/en-francais-svp/-/raw/master/module/module.json",
  "download": "https://gitlab.com/sticklite13/en-francais-svp/-/jobs/artifacts/v0.8/raw/en-francais-svp.zip?job=build"
}
